{
  "configVersion": 2,
  "packages": [
    {
      "name": "_fe_analyzer_shared",
      "rootUri": "file:///Users/mariganesh/Documents/flutter/.pub-cache/hosted/pub.dartlang.org/_fe_analyzer_shared-14.0.0",
      "packageUri": "lib/",
      "languageVersion": "2.2"
    },
    {
      "name": "analyzer",
      "rootUri": "file:///Users/mariganesh/Documents/flutter/.pub-cache/hosted/pub.dartlang.org/analyzer-0.41.2",
      "packageUri": "lib/",
      "languageVersion": "2.7"
    },
    {
      "name": "args",
      "rootUri": "file:///Users/mariganesh/Documents/flutter/.pub-cache/hosted/pub.dartlang.org/args-2.0.0",
      "packageUri": "lib/",
      "languageVersion": "2.12"
    },
    {
      "name": "async",
      "rootUri": "file:///Users/mariganesh/Documents/flutter/.pub-cache/hosted/pub.dartlang.org/async-2.5.0",
      "packageUri": "lib/",
      "languageVersion": "2.12"
    },
    {
      "name": "bloc",
      "rootUri": "file:///Users/mariganesh/Documents/flutter/.pub-cache/hosted/pub.dartlang.org/bloc-6.1.3",
      "packageUri": "lib/",
      "languageVersion": "2.6"
    },
    {
      "name": "boolean_selector",
      "rootUri": "file:///Users/mariganesh/Documents/flutter/.pub-cache/hosted/pub.dartlang.org/boolean_selector-2.1.0",
      "packageUri": "lib/",
      "languageVersion": "2.12"
    },
    {
      "name": "build",
      "rootUri": "file:///Users/mariganesh/Documents/flutter/.pub-cache/hosted/pub.dartlang.org/build-1.6.2",
      "packageUri": "lib/",
      "languageVersion": "2.9"
    },
    {
      "name": "build_config",
      "rootUri": "file:///Users/mariganesh/Documents/flutter/.pub-cache/hosted/pub.dartlang.org/build_config-0.4.6",
      "packageUri": "lib/",
      "languageVersion": "2.9"
    },
    {
      "name": "build_daemon",
      "rootUri": "file:///Users/mariganesh/Documents/flutter/.pub-cache/hosted/pub.dartlang.org/build_daemon-2.1.8",
      "packageUri": "lib/",
      "languageVersion": "2.11"
    },
    {
      "name": "build_resolvers",
      "rootUri": "file:///Users/mariganesh/Documents/flutter/.pub-cache/hosted/pub.dartlang.org/build_resolvers-1.5.3",
      "packageUri": "lib/",
      "languageVersion": "2.9"
    },
    {
      "name": "build_runner",
      "rootUri": "file:///Users/mariganesh/Documents/flutter/.pub-cache/hosted/pub.dartlang.org/build_runner-1.11.5",
      "packageUri": "lib/",
      "languageVersion": "2.11"
    },
    {
      "name": "build_runner_core",
      "rootUri": "file:///Users/mariganesh/Documents/flutter/.pub-cache/hosted/pub.dartlang.org/build_runner_core-6.1.10",
      "packageUri": "lib/",
      "languageVersion": "2.11"
    },
    {
      "name": "built_collection",
      "rootUri": "file:///Users/mariganesh/Documents/flutter/.pub-cache/hosted/pub.dartlang.org/built_collection-5.0.0",
      "packageUri": "lib/",
      "languageVersion": "2.12"
    },
    {
      "name": "built_value",
      "rootUri": "file:///Users/mariganesh/Documents/flutter/.pub-cache/hosted/pub.dartlang.org/built_value-8.0.0",
      "packageUri": "lib/",
      "languageVersion": "2.12"
    },
    {
      "name": "characters",
      "rootUri": "file:///Users/mariganesh/Documents/flutter/.pub-cache/hosted/pub.dartlang.org/characters-1.1.0",
      "packageUri": "lib/",
      "languageVersion": "2.12"
    },
    {
      "name": "charcode",
      "rootUri": "file:///Users/mariganesh/Documents/flutter/.pub-cache/hosted/pub.dartlang.org/charcode-1.2.0",
      "packageUri": "lib/",
      "languageVersion": "2.12"
    },
    {
      "name": "checked_yaml",
      "rootUri": "file:///Users/mariganesh/Documents/flutter/.pub-cache/hosted/pub.dartlang.org/checked_yaml-1.0.4",
      "packageUri": "lib/",
      "languageVersion": "2.7"
    },
    {
      "name": "cli_util",
      "rootUri": "file:///Users/mariganesh/Documents/flutter/.pub-cache/hosted/pub.dartlang.org/cli_util-0.3.0",
      "packageUri": "lib/",
      "languageVersion": "2.12"
    },
    {
      "name": "clock",
      "rootUri": "file:///Users/mariganesh/Documents/flutter/.pub-cache/hosted/pub.dartlang.org/clock-1.1.0",
      "packageUri": "lib/",
      "languageVersion": "2.12"
    },
    {
      "name": "code_builder",
      "rootUri": "file:///Users/mariganesh/Documents/flutter/.pub-cache/hosted/pub.dartlang.org/code_builder-3.6.0",
      "packageUri": "lib/",
      "languageVersion": "2.7"
    },
    {
      "name": "collection",
      "rootUri": "file:///Users/mariganesh/Documents/flutter/.pub-cache/hosted/pub.dartlang.org/collection-1.15.0",
      "packageUri": "lib/",
      "languageVersion": "2.12"
    },
    {
      "name": "convert",
      "rootUri": "file:///Users/mariganesh/Documents/flutter/.pub-cache/hosted/pub.dartlang.org/convert-3.0.0",
      "packageUri": "lib/",
      "languageVersion": "2.12"
    },
    {
      "name": "crypto",
      "rootUri": "file:///Users/mariganesh/Documents/flutter/.pub-cache/hosted/pub.dartlang.org/crypto-3.0.0",
      "packageUri": "lib/",
      "languageVersion": "2.12"
    },
    {
      "name": "cupertino_icons",
      "rootUri": "file:///Users/mariganesh/Documents/flutter/.pub-cache/hosted/pub.dartlang.org/cupertino_icons-1.0.2",
      "packageUri": "lib/",
      "languageVersion": "2.12"
    },
    {
      "name": "dart_style",
      "rootUri": "file:///Users/mariganesh/Documents/flutter/.pub-cache/hosted/pub.dartlang.org/dart_style-1.3.12",
      "packageUri": "lib/",
      "languageVersion": "2.9"
    },
    {
      "name": "dio",
      "rootUri": "file:///Users/mariganesh/Documents/flutter/.pub-cache/hosted/pub.dartlang.org/dio-3.0.10",
      "packageUri": "lib/",
      "languageVersion": "2.4"
    },
    {
      "name": "easy_localization",
      "rootUri": "file:///Users/mariganesh/Documents/flutter/.pub-cache/hosted/pub.dartlang.org/easy_localization-3.0.0",
      "packageUri": "lib/",
      "languageVersion": "2.12"
    },
    {
      "name": "easy_logger",
      "rootUri": "file:///Users/mariganesh/Documents/flutter/.pub-cache/hosted/pub.dartlang.org/easy_logger-0.0.2",
      "packageUri": "lib/",
      "languageVersion": "2.12"
    },
    {
      "name": "equatable",
      "rootUri": "file:///Users/mariganesh/Documents/flutter/.pub-cache/hosted/pub.dartlang.org/equatable-1.2.6",
      "packageUri": "lib/",
      "languageVersion": "2.0"
    },
    {
      "name": "fake_async",
      "rootUri": "file:///Users/mariganesh/Documents/flutter/.pub-cache/hosted/pub.dartlang.org/fake_async-1.2.0",
      "packageUri": "lib/",
      "languageVersion": "2.12"
    },
    {
      "name": "ffi",
      "rootUri": "file:///Users/mariganesh/Documents/flutter/.pub-cache/hosted/pub.dartlang.org/ffi-1.0.0",
      "packageUri": "lib/",
      "languageVersion": "2.12"
    },
    {
      "name": "file",
      "rootUri": "file:///Users/mariganesh/Documents/flutter/.pub-cache/hosted/pub.dartlang.org/file-6.1.0",
      "packageUri": "lib/",
      "languageVersion": "2.12"
    },
    {
      "name": "fixnum",
      "rootUri": "file:///Users/mariganesh/Documents/flutter/.pub-cache/hosted/pub.dartlang.org/fixnum-1.0.0",
      "packageUri": "lib/",
      "languageVersion": "2.12"
    },
    {
      "name": "flutter",
      "rootUri": "file:///Users/mariganesh/Documents/flutter/packages/flutter",
      "packageUri": "lib/",
      "languageVersion": "2.12"
    },
    {
      "name": "flutter_bloc",
      "rootUri": "file:///Users/mariganesh/Documents/flutter/.pub-cache/hosted/pub.dartlang.org/flutter_bloc-6.1.3",
      "packageUri": "lib/",
      "languageVersion": "2.6"
    },
    {
      "name": "flutter_localizations",
      "rootUri": "file:///Users/mariganesh/Documents/flutter/packages/flutter_localizations",
      "packageUri": "lib/",
      "languageVersion": "2.12"
    },
    {
      "name": "flutter_plugin_android_lifecycle",
      "rootUri": "file:///Users/mariganesh/Documents/flutter/.pub-cache/hosted/pub.dartlang.org/flutter_plugin_android_lifecycle-2.0.0",
      "packageUri": "lib/",
      "languageVersion": "2.12"
    },
    {
      "name": "flutter_test",
      "rootUri": "file:///Users/mariganesh/Documents/flutter/packages/flutter_test",
      "packageUri": "lib/",
      "languageVersion": "2.12"
    },
    {
      "name": "flutter_web_plugins",
      "rootUri": "file:///Users/mariganesh/Documents/flutter/packages/flutter_web_plugins",
      "packageUri": "lib/",
      "languageVersion": "2.12"
    },
    {
      "name": "fluttertoast",
      "rootUri": "file:///Users/mariganesh/Documents/flutter/.pub-cache/hosted/pub.dartlang.org/fluttertoast-4.0.1",
      "packageUri": "lib/",
      "languageVersion": "2.0"
    },
    {
      "name": "geolocator",
      "rootUri": "file:///Users/mariganesh/Documents/flutter/.pub-cache/hosted/pub.dartlang.org/geolocator-7.0.1",
      "packageUri": "lib/",
      "languageVersion": "2.12"
    },
    {
      "name": "geolocator_platform_interface",
      "rootUri": "file:///Users/mariganesh/Documents/flutter/.pub-cache/hosted/pub.dartlang.org/geolocator_platform_interface-2.0.0",
      "packageUri": "lib/",
      "languageVersion": "2.12"
    },
    {
      "name": "geolocator_web",
      "rootUri": "file:///Users/mariganesh/Documents/flutter/.pub-cache/hosted/pub.dartlang.org/geolocator_web-2.0.1",
      "packageUri": "lib/",
      "languageVersion": "2.12"
    },
    {
      "name": "glob",
      "rootUri": "file:///Users/mariganesh/Documents/flutter/.pub-cache/hosted/pub.dartlang.org/glob-2.0.0",
      "packageUri": "lib/",
      "languageVersion": "2.12"
    },
    {
      "name": "google_maps_flutter",
      "rootUri": "file:///Users/mariganesh/Documents/flutter/.pub-cache/hosted/pub.dartlang.org/google_maps_flutter-2.0.1",
      "packageUri": "lib/",
      "languageVersion": "2.12"
    },
    {
      "name": "google_maps_flutter_platform_interface",
      "rootUri": "file:///Users/mariganesh/Documents/flutter/.pub-cache/hosted/pub.dartlang.org/google_maps_flutter_platform_interface-2.0.0",
      "packageUri": "lib/",
      "languageVersion": "2.12"
    },
    {
      "name": "graphs",
      "rootUri": "file:///Users/mariganesh/Documents/flutter/.pub-cache/hosted/pub.dartlang.org/graphs-0.2.0",
      "packageUri": "lib/",
      "languageVersion": "2.0"
    },
    {
      "name": "http_multi_server",
      "rootUri": "file:///Users/mariganesh/Documents/flutter/.pub-cache/hosted/pub.dartlang.org/http_multi_server-2.2.0",
      "packageUri": "lib/",
      "languageVersion": "2.1"
    },
    {
      "name": "http_parser",
      "rootUri": "file:///Users/mariganesh/Documents/flutter/.pub-cache/hosted/pub.dartlang.org/http_parser-3.1.4",
      "packageUri": "lib/",
      "languageVersion": "2.3"
    },
    {
      "name": "intl",
      "rootUri": "file:///Users/mariganesh/Documents/flutter/.pub-cache/hosted/pub.dartlang.org/intl-0.17.0",
      "packageUri": "lib/",
      "languageVersion": "2.12"
    },
    {
      "name": "io",
      "rootUri": "file:///Users/mariganesh/Documents/flutter/.pub-cache/hosted/pub.dartlang.org/io-0.3.5",
      "packageUri": "lib/",
      "languageVersion": "2.1"
    },
    {
      "name": "js",
      "rootUri": "file:///Users/mariganesh/Documents/flutter/.pub-cache/hosted/pub.dartlang.org/js-0.6.3",
      "packageUri": "lib/",
      "languageVersion": "2.12"
    },
    {
      "name": "json_annotation",
      "rootUri": "file:///Users/mariganesh/Documents/flutter/.pub-cache/hosted/pub.dartlang.org/json_annotation-3.1.1",
      "packageUri": "lib/",
      "languageVersion": "2.7"
    },
    {
      "name": "json_serializable",
      "rootUri": "file:///Users/mariganesh/Documents/flutter/.pub-cache/hosted/pub.dartlang.org/json_serializable-3.5.1",
      "packageUri": "lib/",
      "languageVersion": "2.7"
    },
    {
      "name": "lint",
      "rootUri": "file:///Users/mariganesh/Documents/flutter/.pub-cache/hosted/pub.dartlang.org/lint-1.5.3",
      "packageUri": "lib/",
      "languageVersion": "2.12"
    },
    {
      "name": "location_permissions",
      "rootUri": "file:///Users/mariganesh/Documents/flutter/.pub-cache/hosted/pub.dartlang.org/location_permissions-3.0.0+1",
      "packageUri": "lib/",
      "languageVersion": "2.1"
    },
    {
      "name": "logging",
      "rootUri": "file:///Users/mariganesh/Documents/flutter/.pub-cache/hosted/pub.dartlang.org/logging-1.0.0",
      "packageUri": "lib/",
      "languageVersion": "2.12"
    },
    {
      "name": "matcher",
      "rootUri": "file:///Users/mariganesh/Documents/flutter/.pub-cache/hosted/pub.dartlang.org/matcher-0.12.10",
      "packageUri": "lib/",
      "languageVersion": "2.12"
    },
    {
      "name": "meta",
      "rootUri": "file:///Users/mariganesh/Documents/flutter/.pub-cache/hosted/pub.dartlang.org/meta-1.3.0",
      "packageUri": "lib/",
      "languageVersion": "2.12"
    },
    {
      "name": "mime",
      "rootUri": "file:///Users/mariganesh/Documents/flutter/.pub-cache/hosted/pub.dartlang.org/mime-1.0.0",
      "packageUri": "lib/",
      "languageVersion": "2.12"
    },
    {
      "name": "nested",
      "rootUri": "file:///Users/mariganesh/Documents/flutter/.pub-cache/hosted/pub.dartlang.org/nested-1.0.0",
      "packageUri": "lib/",
      "languageVersion": "2.12"
    },
    {
      "name": "package_config",
      "rootUri": "file:///Users/mariganesh/Documents/flutter/.pub-cache/hosted/pub.dartlang.org/package_config-1.9.3",
      "packageUri": "lib/",
      "languageVersion": "2.7"
    },
    {
      "name": "path",
      "rootUri": "file:///Users/mariganesh/Documents/flutter/.pub-cache/hosted/pub.dartlang.org/path-1.8.0",
      "packageUri": "lib/",
      "languageVersion": "2.12"
    },
    {
      "name": "path_provider_linux",
      "rootUri": "file:///Users/mariganesh/Documents/flutter/.pub-cache/hosted/pub.dartlang.org/path_provider_linux-2.0.0",
      "packageUri": "lib/",
      "languageVersion": "2.12"
    },
    {
      "name": "path_provider_platform_interface",
      "rootUri": "file:///Users/mariganesh/Documents/flutter/.pub-cache/hosted/pub.dartlang.org/path_provider_platform_interface-2.0.0",
      "packageUri": "lib/",
      "languageVersion": "2.12"
    },
    {
      "name": "path_provider_windows",
      "rootUri": "file:///Users/mariganesh/Documents/flutter/.pub-cache/hosted/pub.dartlang.org/path_provider_windows-2.0.0",
      "packageUri": "lib/",
      "languageVersion": "2.12"
    },
    {
      "name": "pedantic",
      "rootUri": "file:///Users/mariganesh/Documents/flutter/.pub-cache/hosted/pub.dartlang.org/pedantic-1.11.0",
      "packageUri": "lib/",
      "languageVersion": "2.12"
    },
    {
      "name": "platform",
      "rootUri": "file:///Users/mariganesh/Documents/flutter/.pub-cache/hosted/pub.dartlang.org/platform-3.0.0",
      "packageUri": "lib/",
      "languageVersion": "2.12"
    },
    {
      "name": "plugin_platform_interface",
      "rootUri": "file:///Users/mariganesh/Documents/flutter/.pub-cache/hosted/pub.dartlang.org/plugin_platform_interface-2.0.0",
      "packageUri": "lib/",
      "languageVersion": "2.12"
    },
    {
      "name": "pool",
      "rootUri": "file:///Users/mariganesh/Documents/flutter/.pub-cache/hosted/pub.dartlang.org/pool-1.5.0",
      "packageUri": "lib/",
      "languageVersion": "2.12"
    },
    {
      "name": "process",
      "rootUri": "file:///Users/mariganesh/Documents/flutter/.pub-cache/hosted/pub.dartlang.org/process-4.1.0",
      "packageUri": "lib/",
      "languageVersion": "2.12"
    },
    {
      "name": "provider",
      "rootUri": "file:///Users/mariganesh/Documents/flutter/.pub-cache/hosted/pub.dartlang.org/provider-4.3.3",
      "packageUri": "lib/",
      "languageVersion": "2.7"
    },
    {
      "name": "pub_semver",
      "rootUri": "file:///Users/mariganesh/Documents/flutter/.pub-cache/hosted/pub.dartlang.org/pub_semver-2.0.0",
      "packageUri": "lib/",
      "languageVersion": "2.12"
    },
    {
      "name": "pubspec_parse",
      "rootUri": "file:///Users/mariganesh/Documents/flutter/.pub-cache/hosted/pub.dartlang.org/pubspec_parse-0.1.8",
      "packageUri": "lib/",
      "languageVersion": "2.7"
    },
    {
      "name": "shared_preferences",
      "rootUri": "file:///Users/mariganesh/Documents/flutter/.pub-cache/hosted/pub.dartlang.org/shared_preferences-2.0.4",
      "packageUri": "lib/",
      "languageVersion": "2.12"
    },
    {
      "name": "shared_preferences_linux",
      "rootUri": "file:///Users/mariganesh/Documents/flutter/.pub-cache/hosted/pub.dartlang.org/shared_preferences_linux-2.0.0",
      "packageUri": "lib/",
      "languageVersion": "2.12"
    },
    {
      "name": "shared_preferences_macos",
      "rootUri": "file:///Users/mariganesh/Documents/flutter/.pub-cache/hosted/pub.dartlang.org/shared_preferences_macos-2.0.0",
      "packageUri": "lib/",
      "languageVersion": "2.12"
    },
    {
      "name": "shared_preferences_platform_interface",
      "rootUri": "file:///Users/mariganesh/Documents/flutter/.pub-cache/hosted/pub.dartlang.org/shared_preferences_platform_interface-2.0.0",
      "packageUri": "lib/",
      "languageVersion": "2.12"
    },
    {
      "name": "shared_preferences_web",
      "rootUri": "file:///Users/mariganesh/Documents/flutter/.pub-cache/hosted/pub.dartlang.org/shared_preferences_web-2.0.0",
      "packageUri": "lib/",
      "languageVersion": "2.12"
    },
    {
      "name": "shared_preferences_windows",
      "rootUri": "file:///Users/mariganesh/Documents/flutter/.pub-cache/hosted/pub.dartlang.org/shared_preferences_windows-2.0.0",
      "packageUri": "lib/",
      "languageVersion": "2.12"
    },
    {
      "name": "shelf",
      "rootUri": "file:///Users/mariganesh/Documents/flutter/.pub-cache/hosted/pub.dartlang.org/shelf-0.7.9",
      "packageUri": "lib/",
      "languageVersion": "2.1"
    },
    {
      "name": "shelf_web_socket",
      "rootUri": "file:///Users/mariganesh/Documents/flutter/.pub-cache/hosted/pub.dartlang.org/shelf_web_socket-0.2.4+1",
      "packageUri": "lib/",
      "languageVersion": "2.1"
    },
    {
      "name": "sky_engine",
      "rootUri": "file:///Users/mariganesh/Documents/flutter/bin/cache/pkg/sky_engine",
      "packageUri": "lib/",
      "languageVersion": "2.12"
    },
    {
      "name": "source_gen",
      "rootUri": "file:///Users/mariganesh/Documents/flutter/.pub-cache/hosted/pub.dartlang.org/source_gen-0.9.10+3",
      "packageUri": "lib/",
      "languageVersion": "2.10"
    },
    {
      "name": "source_span",
      "rootUri": "file:///Users/mariganesh/Documents/flutter/.pub-cache/hosted/pub.dartlang.org/source_span-1.8.0",
      "packageUri": "lib/",
      "languageVersion": "2.12"
    },
    {
      "name": "stack_trace",
      "rootUri": "file:///Users/mariganesh/Documents/flutter/.pub-cache/hosted/pub.dartlang.org/stack_trace-1.10.0",
      "packageUri": "lib/",
      "languageVersion": "2.12"
    },
    {
      "name": "sticky_headers",
      "rootUri": "file:///Users/mariganesh/Documents/flutter/.pub-cache/hosted/pub.dartlang.org/sticky_headers-0.1.8+1",
      "packageUri": "lib/",
      "languageVersion": "2.0"
    },
    {
      "name": "stream_channel",
      "rootUri": "file:///Users/mariganesh/Documents/flutter/.pub-cache/hosted/pub.dartlang.org/stream_channel-2.1.0",
      "packageUri": "lib/",
      "languageVersion": "2.12"
    },
    {
      "name": "stream_transform",
      "rootUri": "file:///Users/mariganesh/Documents/flutter/.pub-cache/hosted/pub.dartlang.org/stream_transform-2.0.0",
      "packageUri": "lib/",
      "languageVersion": "2.12"
    },
    {
      "name": "string_scanner",
      "rootUri": "file:///Users/mariganesh/Documents/flutter/.pub-cache/hosted/pub.dartlang.org/string_scanner-1.1.0",
      "packageUri": "lib/",
      "languageVersion": "2.12"
    },
    {
      "name": "term_glyph",
      "rootUri": "file:///Users/mariganesh/Documents/flutter/.pub-cache/hosted/pub.dartlang.org/term_glyph-1.2.0",
      "packageUri": "lib/",
      "languageVersion": "2.12"
    },
    {
      "name": "test_api",
      "rootUri": "file:///Users/mariganesh/Documents/flutter/.pub-cache/hosted/pub.dartlang.org/test_api-0.2.19",
      "packageUri": "lib/",
      "languageVersion": "2.12"
    },
    {
      "name": "timing",
      "rootUri": "file:///Users/mariganesh/Documents/flutter/.pub-cache/hosted/pub.dartlang.org/timing-0.1.1+3",
      "packageUri": "lib/",
      "languageVersion": "2.2"
    },
    {
      "name": "typed_data",
      "rootUri": "file:///Users/mariganesh/Documents/flutter/.pub-cache/hosted/pub.dartlang.org/typed_data-1.3.0",
      "packageUri": "lib/",
      "languageVersion": "2.12"
    },
    {
      "name": "url_launcher",
      "rootUri": "file:///Users/mariganesh/Documents/flutter/.pub-cache/hosted/pub.dartlang.org/url_launcher-6.0.2",
      "packageUri": "lib/",
      "languageVersion": "2.12"
    },
    {
      "name": "url_launcher_linux",
      "rootUri": "file:///Users/mariganesh/Documents/flutter/.pub-cache/hosted/pub.dartlang.org/url_launcher_linux-2.0.0",
      "packageUri": "lib/",
      "languageVersion": "2.12"
    },
    {
      "name": "url_launcher_macos",
      "rootUri": "file:///Users/mariganesh/Documents/flutter/.pub-cache/hosted/pub.dartlang.org/url_launcher_macos-2.0.0",
      "packageUri": "lib/",
      "languageVersion": "2.12"
    },
    {
      "name": "url_launcher_platform_interface",
      "rootUri": "file:///Users/mariganesh/Documents/flutter/.pub-cache/hosted/pub.dartlang.org/url_launcher_platform_interface-2.0.1",
      "packageUri": "lib/",
      "languageVersion": "2.12"
    },
    {
      "name": "url_launcher_web",
      "rootUri": "file:///Users/mariganesh/Documents/flutter/.pub-cache/hosted/pub.dartlang.org/url_launcher_web-2.0.0",
      "packageUri": "lib/",
      "languageVersion": "2.12"
    },
    {
      "name": "url_launcher_windows",
      "rootUri": "file:///Users/mariganesh/Documents/flutter/.pub-cache/hosted/pub.dartlang.org/url_launcher_windows-2.0.0",
      "packageUri": "lib/",
      "languageVersion": "2.12"
    },
    {
      "name": "vector_math",
      "rootUri": "file:///Users/mariganesh/Documents/flutter/.pub-cache/hosted/pub.dartlang.org/vector_math-2.1.0",
      "packageUri": "lib/",
      "languageVersion": "2.12"
    },
    {
      "name": "watcher",
      "rootUri": "file:///Users/mariganesh/Documents/flutter/.pub-cache/hosted/pub.dartlang.org/watcher-1.0.0",
      "packageUri": "lib/",
      "languageVersion": "2.12"
    },
    {
      "name": "web_socket_channel",
      "rootUri": "file:///Users/mariganesh/Documents/flutter/.pub-cache/hosted/pub.dartlang.org/web_socket_channel-1.2.0",
      "packageUri": "lib/",
      "languageVersion": "2.10"
    },
    {
      "name": "webview_flutter",
      "rootUri": "file:///Users/mariganesh/Documents/flutter/.pub-cache/hosted/pub.dartlang.org/webview_flutter-2.0.2",
      "packageUri": "lib/",
      "languageVersion": "2.12"
    },
    {
      "name": "win32",
      "rootUri": "file:///Users/mariganesh/Documents/flutter/.pub-cache/hosted/pub.dartlang.org/win32-2.0.0",
      "packageUri": "lib/",
      "languageVersion": "2.12"
    },
    {
      "name": "xdg_directories",
      "rootUri": "file:///Users/mariganesh/Documents/flutter/.pub-cache/hosted/pub.dartlang.org/xdg_directories-0.2.0",
      "packageUri": "lib/",
      "languageVersion": "2.12"
    },
    {
      "name": "yaml",
      "rootUri": "file:///Users/mariganesh/Documents/flutter/.pub-cache/hosted/pub.dartlang.org/yaml-3.1.0",
      "packageUri": "lib/",
      "languageVersion": "2.12"
    },
    {
      "name": "flutter_base",
      "rootUri": "../",
      "packageUri": "lib/",
      "languageVersion": "2.7"
    }
  ],
  "generated": "2021-03-22T06:20:27.338188Z",
  "generator": "pub",
  "generatorVersion": "2.12.1"
}
